Community Composition & Comparative Metagenomic Analyses Examples
…
# perform CLR transformation
ps_qc_clr <- microbiome::transform(ps_qc, "clr")

# obtaining a distance matrix using Aitchisons distance (Euclidean distance on CLR transformed vars)
dist_matrix <- phyloseq::distance(ps_qc_clr, method = "euclidean")

# formating matrix into a long-tidy data table
dist_matrix %>%
  as.matrix() %>% 
  as.data.frame() %>% 
  rownames_to_column(var = "pair_1") %>% 
  pivot_longer(!pair_1)

# A tibble: 576 × 3
   pair_1       name         value
   <chr>        <chr>        <dbl>
 1 MGYA00615918 MGYA00615918  0   
 2 MGYA00615918 MGYA00615929  6.35
 3 MGYA00615918 MGYA00615930  6.13
 4 MGYA00615918 MGYA00615931  8.35
 5 MGYA00615918 MGYA00615932  6.64
 6 MGYA00615918 MGYA00615933  8.05
 7 MGYA00615918 MGYA00615934  6.65
 8 MGYA00615918 MGYA00615935  5.69
 9 MGYA00615918 MGYA00616693  7.57
10 MGYA00615918 MGYA00616694  7.15
# ℹ 566 more rows
…
